<svg width="70" height="92" viewBox="0 0 70 92" fill="none" xmlns="http://www.w3.org/2000/svg">
<circle cx="35" cy="35" r="35" fill="#FCC40B"/>
<path fill-rule="evenodd" clip-rule="evenodd" d="M47.1684 50H53.5004C58.7441 50 63.0973 54.2695 62.9984 59.5319V87.8298C62.9984 88.6241 62.4047 89.2198 61.6132 89.2198H54.5887V90.6099C54.5887 91.4042 53.9951 92 53.2036 92H16.7947C16.0033 92 15.4097 91.4042 15.4097 90.6099V89.2198H8.38513C7.59363 89.2198 7 88.6241 7 87.8298V59.5319C7 54.2695 11.3532 50 16.5969 50H23.0278C20.0597 47.617 18.2788 43.9432 18.2788 40.1702C18.2788 37.1915 19.6639 34.4114 21.9395 32.5248C22.2363 32.2269 22.4341 31.8298 22.4341 31.4326V14.9504C22.4341 11.078 25.5012 8 29.3597 8H54.6876C55.4791 8 56.0728 8.59576 56.1717 9.39008V17.8298C56.1717 21.7021 53.1047 24.7802 49.2461 24.7802H47.762V31.4326C47.762 31.8298 47.9599 32.2269 48.2567 32.5248C50.5323 34.4114 51.9174 37.1915 51.9174 40.1702C51.9174 44.0425 50.1365 47.617 47.1684 50ZM51.8185 52.7802H49.0482V69.5603H51.8185V52.7802ZM29.3597 10.7802C27.0842 10.7802 25.2044 12.6667 25.2044 14.9504H25.3033V16.6383C25.6991 16.4397 26.1938 16.3405 26.6885 16.3405H43.3099C45.6844 16.3405 47.5641 18.2269 47.5641 20.6099V22H49.0482C51.3238 22 53.2036 20.1135 53.2036 17.8298V10.7802H29.3597ZM25.2044 20.6099V31.4326V32.0284L27.5789 34.0142C28.7661 35.0071 30.547 35.2057 31.9321 34.5106C33.812 33.5178 36.0875 33.5178 38.0662 34.5106C39.4514 35.2057 41.1332 35.0071 42.4194 34.0142L44.7939 32.1277C44.695 31.9291 44.695 31.6312 44.695 31.4326V20.6099C44.695 19.8156 44.1014 19.2198 43.3099 19.2198H26.5895C25.798 19.2198 25.2044 19.8156 25.2044 20.6099ZM23.6214 34.7092C22.0385 36 21.0491 38.0851 21.0491 40.1702C21.0491 45.6312 25.4023 50 30.8438 50H39.2535C44.695 50 49.0482 45.6312 49.0482 40.1702C49.1472 38.0851 48.1578 36 46.4759 34.7092L46.377 34.6099L44.2993 36.2979C42.2216 37.9858 39.2535 38.2837 36.879 37.0922C35.6917 36.4965 34.4056 36.4965 33.2183 37.0922C30.7449 38.2837 27.8757 37.9858 25.798 36.2979L23.7203 34.6099L23.6214 34.7092ZM40.6386 55.6595C40.6386 58.7376 38.0662 61.2198 34.9991 61.2198C31.9321 61.2198 29.4587 58.7376 29.4587 55.6595V52.7802H23.8193V64.0993H46.278V52.8795H40.6386V55.6595ZM32.2289 52.8795V55.6595C32.2289 57.1489 33.6141 58.4397 35.0981 58.4397C36.5822 58.4397 37.8683 57.2482 37.8683 55.6595V52.8795H32.2289ZM20.9501 52.7802H18.1799V69.5603H20.9501V52.7802ZM22.4341 72.4397H18.1799V78H51.8185V72.4397H47.6631C46.8716 72.4397 46.278 71.844 46.278 71.0496V66.8795H23.8193V71.0496C23.8193 71.844 23.2256 72.4397 22.4341 72.4397ZM15.4097 52.8795C12.1447 53.4752 9.77026 56.2553 9.77026 59.5319V78H15.4097V52.8795ZM9.77026 80.8795V86.4397H18.1799C21.3459 86.4397 23.8193 83.9575 23.8193 80.8795H9.77026ZM26.5895 80.7802C26.5895 85.4468 22.8299 89.2198 18.1799 89.2198H51.8185C47.1684 89.2198 43.4088 85.4468 43.4088 80.7802H26.5895ZM51.8185 86.4397H60.2281V80.8795H46.1791C46.1791 83.9575 48.7514 86.4397 51.8185 86.4397ZM54.5887 78H60.2281V59.5319C60.2281 56.2553 57.8536 53.4752 54.5887 52.8795V78ZM32.5439 27.7646H29.5965V30.7294H32.5439V27.7646ZM40.4036 27.7646H37.4562V30.7294H40.4036V27.7646Z" fill="#595347"/>
</svg>
