<svg width="20" height="20" viewBox="0 0 20 20" fill="none" xmlns="http://www.w3.org/2000/svg">
<path d="M10 0C4.5 0 0 4.5 0 10C0 15.5 4.5 20 10 20C15.5 20 20 15.5 20 10C20 4.5 15.5 0 10 0ZM16 14.4L14.5 15.8C12.2 18.1 1.9 7.7 4.1 5.5L5.6 4C5.8 3.7 6.2 3.7 6.5 4L7.9 6.2C8 6.5 8.1 6.8 7.9 7.1L6.8 8.1C7.4 9.1 8.2 10 9 10.9C9.9 11.7 10.8 12.5 11.9 13.1L13 12.1C13.2 11.8 13.6 11.9 13.9 12.1L16.1 13.4C16.3 13.7 16.2 14.1 16 14.4Z" fill="white"/>
</svg>
